{
    "schema_allPosts":{
      "id": 0,
      "createdAt": "2023-02-28T19:34:09.834Z",
      "author": {
        "id": 0,
        "avatar": "string",
        "email": "string",
        "userName": "string"
      },
      "previewImage": "string",
      "body": "string",
      "comments": [
        {
          "id": 0,
          "createdAt": "2023-02-28T19:34:09.834Z",
          "author": {
            "id": 0,
            "avatar": "string",
            "email": "string",
            "userName": "string"
          },
          "body": "string",
          "reactions": [
            {
              "isLike": true,
              "user": {
                "id": 0,
                "avatar": "string",
                "email": "string",
                "userName": "string"
              }
            }
          ]
        }
      ],
      "reactions": [
        {
          "isLike": true,
          "user": {
            "id": 0,
            "avatar": "string",
            "email": "string",
            "userName": "string"
          }
        }
      ]
    }
}